{ "photos": { "page": 1, "pages": 20, "perpage": 50, "total": "1000",
  "photo": [
    { "id": "30473078717", "owner": "159105390@N02", "secret": "9dfc4273a3", "server": "1977", "farm": 2, "title": "IMG_0159", "ispublic": 1, "isfriend": 0, "isfamily": 0, "url_s": "https:\/\/farm2.staticflickr.com\/1977\/30473078717_9dfc4273a3_m.jpg", "height_s": "240", "width_s": "160", "url_m": "https:\/\/farm2.staticflickr.com\/1977\/30473078717_9dfc4273a3.jpg", "height_m": "500", "width_m": "333", "url_l": "https:\/\/farm2.staticflickr.com\/1977\/30473078717_9dfc4273a3_b.jpg", "height_l": "1024", "width_l": "683" },
    { "id": "30473079147", "owner": "159573320@N02", "secret": "e013427e09", "server": "1953", "farm": 2, "title": "4 Awesome Things You Can Learn From Famous Artwork For Kids | famous artwork for kids", "ispublic": 1, "isfriend": 0, "isfamily": 0, "url_s": "https:\/\/farm2.staticflickr.com\/1953\/30473079147_e013427e09_m.jpg", "height_s": "190", "width_s": "240", "url_m": "https:\/\/farm2.staticflickr.com\/1953\/30473079147_e013427e09.jpg", "height_m": "384", "width_m": "485" },
    { "id": "30473079317", "owner": "165097418@N03", "secret": "1703896eaa", "server": "1940", "farm": 2, "title": "Just Pinned to Pinned to Baju Korporat Wanita on Pinterest: Pinned to Baju Korporat Wanita on Pinterest ift.tt\/2IP9ryu", "ispublic": 1, "isfriend": 0, "isfamily": 0, "url_s": "https:\/\/farm2.staticflickr.com\/1940\/30473079317_1703896eaa_m.jpg", "height_s": "202", "width_s": "199" },
    { "id": "30473081527", "owner": "126846816@N05", "secret": "7fb8382093", "server": "1911", "farm": 2, "title": "CAP BLANC MAJORCA", "ispublic": 1, "isfriend": 0, "isfamily": 0, "url_s": "https:\/\/farm2.staticflickr.com\/1911\/30473081527_7fb8382093_m.jpg", "height_s": "180", "width_s": "240", "url_m": "https:\/\/farm2.staticflickr.com\/1911\/30473081527_7fb8382093.jpg", "height_m": "375", "width_m": "500", "url_l": "https:\/\/farm2.staticflickr.com\/1911\/30473081527_7fb8382093_b.jpg", "height_l": "768", "width_l": "1024" },
    { "id": "30473083917", "owner": "63368097@N05", "secret": "9cde9fde61", "server": "1914", "farm": 2, "title": "😯", "ispublic": 1, "isfriend": 0, "isfamily": 0, "url_s": "https:\/\/farm2.staticflickr.com\/1914\/30473083917_9cde9fde61_m.jpg", "height_s": "240", "width_s": "160", "url_m": "https:\/\/farm2.staticflickr.com\/1914\/30473083917_9cde9fde61.jpg", "height_m": "500", "width_m": "333", "url_l": "https:\/\/farm2.staticflickr.com\/1914\/30473083917_9cde9fde61_b.jpg", "height_l": "750", "width_l": "500" },
    { "id": "30473084567", "owner": "156308724@N03", "secret": "4d1a2db50f", "server": "1929", "farm": 2, "title": "📷📷📷", "ispublic": 1, "isfriend": 0, "isfamily": 0, "url_s": "https:\/\/farm2.staticflickr.com\/1929\/30473084567_4d1a2db50f_m.jpg", "height_s": "160", "width_s": "240", "url_m": "https:\/\/farm2.staticflickr.com\/1929\/30473084567_4d1a2db50f.jpg", "height_m": "333", "width_m": "500", "url_l": "https:\/\/farm2.staticflickr.com\/1929\/30473084567_4d1a2db50f_b.jpg", "height_l": "683", "width_l": "1024" },
    { "id": "30473085277", "owner": "127786521@N06", "secret": "ffe91d86c5", "server": "1926", "farm": 2, "title": "Red-headed Woodpecker", "ispublic": 1, "isfriend": 0, "isfamily": 0, "url_s": "https:\/\/farm2.staticflickr.com\/1926\/30473085277_ffe91d86c5_m.jpg", "height_s": "240", "width_s": "171", "url_m": "https:\/\/farm2.staticflickr.com\/1926\/30473085277_ffe91d86c5.jpg", "height_m": "500", "width_m": "357", "url_l": "https:\/\/farm2.staticflickr.com\/1926\/30473085277_ffe91d86c5_b.jpg", "height_l": "1024", "width_l": "731" },
    { "id": "30473085997", "owner": "159944344@N08", "secret": "1d6d537685", "server": "1912", "farm": 2, "title": "", "ispublic": 1, "isfriend": 0, "isfamily": 0, "url_s": "https:\/\/farm2.staticflickr.com\/1912\/30473085997_1d6d537685_m.jpg", "height_s": "240", "width_s": "240", "url_m": "https:\/\/farm2.staticflickr.com\/1912\/30473085997_1d6d537685.jpg", "height_m": "500", "width_m": "500", "url_l": "https:\/\/farm2.staticflickr.com\/1912\/30473085997_1d6d537685_b.jpg", "height_l": "1024", "width_l": "1024" },
    { "id": "30473086527", "owner": "87584736@N00", "secret": "4962b7bcc1", "server": "1918", "farm": 2, "title": "Orange - Hôtel de Ville", "ispublic": 1, "isfriend": 0, "isfamily": 0, "url_s": "https:\/\/farm2.staticflickr.com\/1918\/30473086527_4962b7bcc1_m.jpg", "height_s": "240", "width_s": "180", "url_m": "https:\/\/farm2.staticflickr.com\/1918\/30473086527_4962b7bcc1.jpg", "height_m": "500", "width_m": "375", "url_l": "https:\/\/farm2.staticflickr.com\/1918\/30473086527_4962b7bcc1_b.jpg", "height_l": "1024", "width_l": "768" },
    { "id": "31537968468", "owner": "160962023@N06", "secret": "bf5f526314", "server": "1945", "farm": 2, "title": "Ten Top Risks Of Attending Car Price Online | car price online", "ispublic": 1, "isfriend": 0, "isfamily": 0, "url_s": "https:\/\/farm2.staticflickr.com\/1945\/31537968468_bf5f526314_m.jpg", "height_s": "135", "width_s": "240", "url_m": "https:\/\/farm2.staticflickr.com\/1945\/31537968468_bf5f526314.jpg", "height_m": "281", "width_m": "500", "url_l": "https:\/\/farm2.staticflickr.com\/1945\/31537968468_bf5f526314_b.jpg", "height_l": "576", "width_l": "1024" },
    { "id": "31537968948", "owner": "10194419@N00", "secret": "a71baebcc9", "server": "1902", "farm": 2, "title": "OldenCam", "ispublic": 1, "isfriend": 0, "isfamily": 0, "url_s": "https:\/\/farm2.staticflickr.com\/1902\/31537968948_a71baebcc9_m.jpg", "height_s": "136", "width_s": "240", "url_m": "https:\/\/farm2.staticflickr.com\/1902\/31537968948_a71baebcc9.jpg", "height_m": "283", "width_m": "500", "url_l": "https:\/\/farm2.staticflickr.com\/1902\/31537968948_a71baebcc9_b.jpg", "height_l": "579", "width_l": "1024" },
    { "id": "31537969328", "owner": "142939410@N06", "secret": "db261b3e8a", "server": "1958", "farm": 2, "title": "2018-10-18_02-41-11", "ispublic": 1, "isfriend": 0, "isfamily": 0, "url_s": "https:\/\/farm2.staticflickr.com\/1958\/31537969328_db261b3e8a_m.jpg", "height_s": "240", "width_s": "240", "url_m": "https:\/\/farm2.staticflickr.com\/1958\/31537969328_db261b3e8a.jpg", "height_m": "479", "width_m": "479" },
    { "id": "31537972248", "owner": "137231406@N02", "secret": "f107aa7095", "server": "1963", "farm": 2, "title": "1-Hyundai I20 R5-2.jpg", "ispublic": 1, "isfriend": 0, "isfamily": 0, "url_s": "https:\/\/farm2.staticflickr.com\/1963\/31537972248_f107aa7095_m.jpg", "height_s": "160", "width_s": "240", "url_m": "https:\/\/farm2.staticflickr.com\/1963\/31537972248_f107aa7095.jpg", "height_m": "333", "width_m": "500", "url_l": "https:\/\/farm2.staticflickr.com\/1963\/31537972248_f107aa7095_b.jpg", "height_l": "683", "width_l": "1024" },
    { "id": "31537973338", "owner": "77220151@N06", "secret": "bd1a04ca23", "server": "1969", "farm": 2, "title": ".", "ispublic": 1, "isfriend": 0, "isfamily": 0, "url_s": "https:\/\/farm2.staticflickr.com\/1969\/31537973338_bd1a04ca23_m.jpg", "height_s": "161", "width_s": "240", "url_m": "https:\/\/farm2.staticflickr.com\/1969\/31537973338_bd1a04ca23.jpg", "height_m": "336", "width_m": "500", "url_l": "https:\/\/farm2.staticflickr.com\/1969\/31537973338_bd1a04ca23_b.jpg", "height_l": "538", "width_l": "800" },
    { "id": "31537973578", "owner": "37885145@N06", "secret": "0ffc76d5c8", "server": "1948", "farm": 2, "title": "Kaffee im Bett", "ispublic": 1, "isfriend": 0, "isfamily": 0, "url_s": "https:\/\/farm2.staticflickr.com\/1948\/31537973578_0ffc76d5c8_m.jpg", "height_s": "160", "width_s": "240", "url_m": "https:\/\/farm2.staticflickr.com\/1948\/31537973578_0ffc76d5c8.jpg", "height_m": "333", "width_m": "500", "url_l": "https:\/\/farm2.staticflickr.com\/1948\/31537973578_0ffc76d5c8_b.jpg", "height_l": "682", "width_l": "1024" },
    { "id": "31537974718", "owner": "157115784@N03", "secret": "92c67fb01f", "server": "1901", "farm": 2, "title": "Tìm tên anh trên bờ cát – Tùng Dương", "ispublic": 1, "isfriend": 0, "isfamily": 0, "url_s": "https:\/\/farm2.staticflickr.com\/1901\/31537974718_92c67fb01f_m.jpg", "height_s": "160", "width_s": "240", "url_m": "https:\/\/farm2.staticflickr.com\/1901\/31537974718_92c67fb01f.jpg", "height_m": "333", "width_m": "500" },
    { "id": "31537974818", "owner": "157926236@N03", "secret": "d1f51d1661", "server": "1910", "farm": 2, "title": "انترنت مجاني في الحدائق قريبا https:\/\/t.co\/nobwSMf5pB", "ispublic": 1, "isfriend": 0, "isfamily": 0, "url_s": "https:\/\/farm2.staticflickr.com\/1910\/31537974818_d1f51d1661_m.jpg", "height_s": "186", "width_s": "240", "url_m": "https:\/\/farm2.staticflickr.com\/1910\/31537974818_d1f51d1661.jpg", "height_m": "233", "width_m": "300" },
    { "id": "31537974848", "owner": "47555660@N04", "secret": "eed7622b6c", "server": "1956", "farm": 2, "title": "DSCF6401.jpg", "ispublic": 1, "isfriend": 0, "isfamily": 0, "url_s": "https:\/\/farm2.staticflickr.com\/1956\/31537974848_eed7622b6c_m.jpg", "height_s": "160", "width_s": "240", "url_m": "https:\/\/farm2.staticflickr.com\/1956\/31537974848_eed7622b6c.jpg", "height_m": "333", "width_m": "500", "url_l": "https:\/\/farm2.staticflickr.com\/1956\/31537974848_eed7622b6c_b.jpg", "height_l": "683", "width_l": "1024" },
    { "id": "31537974998", "owner": "167298243@N02", "secret": "5d70405a66", "server": "1914", "farm": 2, "title": "30 Making Art Prints Rituals You Should Know In 30 | making art prints", "ispublic": 1, "isfriend": 0, "isfamily": 0, "url_s": "https:\/\/farm2.staticflickr.com\/1914\/31537974998_5d70405a66_m.jpg", "height_s": "240", "width_s": "162", "url_m": "https:\/\/farm2.staticflickr.com\/1914\/31537974998_5d70405a66.jpg", "height_m": "500", "width_m": "337", "url_l": "https:\/\/farm2.staticflickr.com\/1914\/31537974998_5d70405a66_b.jpg", "height_l": "1024", "width_l": "691" },
    { "id": "31537975428", "owner": "148466791@N05", "secret": "411192a284", "server": "1968", "farm": 2, "title": "Pinned to Painted by NATURE ♥ on Pinterest", "ispublic": 1, "isfriend": 0, "isfamily": 0, "url_s": "https:\/\/farm2.staticflickr.com\/1968\/31537975428_411192a284_m.jpg", "height_s": "159", "width_s": "240", "url_m": "https:\/\/farm2.staticflickr.com\/1968\/31537975428_411192a284.jpg", "height_m": "332", "width_m": "500", "url_l": "https:\/\/farm2.staticflickr.com\/1968\/31537975428_411192a284_b.jpg", "height_l": "489", "width_l": "736" },
    { "id": "43596578600", "owner": "142486059@N05", "secret": "b2a15e9f86", "server": "1952", "farm": 2, "title": "Trobar II", "ispublic": 1, "isfriend": 0, "isfamily": 0, "url_s": "https:\/\/farm2.staticflickr.com\/1952\/43596578600_b2a15e9f86_m.jpg", "height_s": "160", "width_s": "240", "url_m": "https:\/\/farm2.staticflickr.com\/1952\/43596578600_b2a15e9f86.jpg", "height_m": "333", "width_m": "500", "url_l": "https:\/\/farm2.staticflickr.com\/1952\/43596578600_b2a15e9f86_b.jpg", "height_l": "683", "width_l": "1024" },
    { "id": "43596580660", "owner": "48423781@N04", "secret": "45a82fc88d", "server": "1903", "farm": 2, "title": "[New post] Custom Made (Collared Shirt, Corporate Shirts, Etc. Jacket.) General Stuff & Products. FADZIL ARIPIN +6 010 3425 700", "ispublic": 1, "isfriend": 0, "isfamily": 0, "url_s": "https:\/\/farm2.staticflickr.com\/1903\/43596580660_45a82fc88d_m.jpg", "height_s": "148", "width_s": "240", "url_m": "https:\/\/farm2.staticflickr.com\/1903\/43596580660_45a82fc88d.jpg", "height_m": "309", "width_m": "500", "url_l": "https:\/\/farm2.staticflickr.com\/1903\/43596580660_45a82fc88d_b.jpg", "height_l": "494", "width_l": "800" },
    { "id": "43596581160", "owner": "44282439@N05", "secret": "9b26584bc9", "server": "1920", "farm": 2, "title": "Focus on progress... not perfection! #progress #perfection", "ispublic": 1, "isfriend": 0, "isfamily": 0, "url_s": "https:\/\/farm2.staticflickr.com\/1920\/43596581160_9b26584bc9_m.jpg", "height_s": "240", "width_s": "240", "url_m": "https:\/\/farm2.staticflickr.com\/1920\/43596581160_9b26584bc9.jpg", "height_m": "500", "width_m": "500", "url_l": "https:\/\/farm2.staticflickr.com\/1920\/43596581160_9b26584bc9_b.jpg", "height_l": "750", "width_l": "750" },
    { "id": "43596581470", "owner": "44115322@N07", "secret": "c6a791eec6", "server": "1948", "farm": 2, "title": "Chongqing 1E7A0782", "ispublic": 1, "isfriend": 0, "isfamily": 0, "url_s": "https:\/\/farm2.staticflickr.com\/1948\/43596581470_c6a791eec6_m.jpg", "height_s": "240", "width_s": "160", "url_m": "https:\/\/farm2.staticflickr.com\/1948\/43596581470_c6a791eec6.jpg", "height_m": "500", "width_m": "333", "url_l": "https:\/\/farm2.staticflickr.com\/1948\/43596581470_c6a791eec6_b.jpg", "height_l": "1024", "width_l": "682" },
    { "id": "43596583100", "owner": "34127069@N02", "secret": "81b0fa18e4", "server": "1913", "farm": 2, "title": "ワールドニュース　アジア［二］", "ispublic": 1, "isfriend": 0, "isfamily": 0, "url_s": "https:\/\/farm2.staticflickr.com\/1913\/43596583100_81b0fa18e4_m.jpg", "height_s": "135", "width_s": "240", "url_m": "https:\/\/farm2.staticflickr.com\/1913\/43596583100_81b0fa18e4.jpg", "height_m": "281", "width_m": "500", "url_l": "https:\/\/farm2.staticflickr.com\/1913\/43596583100_81b0fa18e4_b.jpg", "height_l": "576", "width_l": "1024" },
    { "id": "43596583760", "owner": "140346801@N03", "secret": "02143f63bc", "server": "1903", "farm": 2, "title": "From Internet Camera Manasquan (B0:C5:54:26:AC:2E), 2018\/10\/18 15:41:19D", "ispublic": 1, "isfriend": 0, "isfamily": 0, "url_s": "https:\/\/farm2.staticflickr.com\/1903\/43596583760_02143f63bc_m.jpg", "height_s": "135", "width_s": "240", "url_m": "https:\/\/farm2.staticflickr.com\/1903\/43596583760_02143f63bc.jpg", "height_m": "281", "width_m": "500", "url_l": "https:\/\/farm2.staticflickr.com\/1903\/43596583760_02143f63bc_b.jpg", "height_l": "576", "width_l": "1024" },
    { "id": "43596583920", "owner": "64943649@N07", "secret": "7f45dacba0", "server": "1947", "farm": 2, "title": "NULL_The-Damsel", "ispublic": 1, "isfriend": 0, "isfamily": 0, "url_s": "https:\/\/farm2.staticflickr.com\/1947\/43596583920_7f45dacba0_m.jpg", "height_s": "240", "width_s": "161", "url_m": "https:\/\/farm2.staticflickr.com\/1947\/43596583920_7f45dacba0.jpg", "height_m": "500", "width_m": "335", "url_l": "https:\/\/farm2.staticflickr.com\/1947\/43596583920_7f45dacba0_b.jpg", "height_l": "1024", "width_l": "687" },
    { "id": "43596584040", "owner": "142873323@N08", "secret": "a2928f237e", "server": "1973", "farm": 2, "title": "magazine-unlock-05-2.3.927-_6ff8a8589ddb4e999c2a6921e9096cdb", "ispublic": 1, "isfriend": 0, "isfamily": 0, "url_s": "https:\/\/farm2.staticflickr.com\/1973\/43596584040_a2928f237e_m.jpg", "height_s": "240", "width_s": "135", "url_m": "https:\/\/farm2.staticflickr.com\/1973\/43596584040_a2928f237e.jpg", "height_m": "500", "width_m": "281", "url_l": "https:\/\/farm2.staticflickr.com\/1973\/43596584040_a2928f237e_b.jpg", "height_l": "1024", "width_l": "576" },
    { "id": "43596585110", "owner": "106010172@N04", "secret": "ca13361757", "server": "1970", "farm": 2, "title": "shower", "ispublic": 1, "isfriend": 0, "isfamily": 0, "url_s": "https:\/\/farm2.staticflickr.com\/1970\/43596585110_ca13361757_m.jpg", "height_s": "160", "width_s": "240", "url_m": "https:\/\/farm2.staticflickr.com\/1970\/43596585110_ca13361757.jpg", "height_m": "333", "width_m": "500", "url_l": "https:\/\/farm2.staticflickr.com\/1970\/43596585110_ca13361757_b.jpg", "height_l": "683", "width_l": "1024" },
    { "id": "43596585800", "owner": "152943951@N05", "secret": "a5b30a6bc2", "server": "1919", "farm": 2, "title": "Just Pinned to Pinned to Baju Korporat Wanita on Pinterest: Pinned to Baju Korporat Wanita on Pinterest ift.tt\/2IP9ryu", "ispublic": 1, "isfriend": 0, "isfamily": 0, "url_s": "https:\/\/farm2.staticflickr.com\/1919\/43596585800_a5b30a6bc2_m.jpg", "height_s": "202", "width_s": "199" },
    { "id": "44498573075", "owner": "96878891@N07", "secret": "a21cb4cd02", "server": "1936", "farm": 2, "title": "Pro-Line Rat Rod Body For 1\/16 E-Revo - https:\/\/ift.tt\/2ynXU5g", "ispublic": 1, "isfriend": 0, "isfamily": 0, "url_s": "https:\/\/farm2.staticflickr.com\/1936\/44498573075_a21cb4cd02_m.jpg", "height_s": "105", "width_s": "240", "url_m": "https:\/\/farm2.staticflickr.com\/1936\/44498573075_a21cb4cd02.jpg", "height_m": "131", "width_m": "300" },
    { "id": "44498575995", "owner": "30487597@N00", "secret": "eca4e4012f", "server": "1957", "farm": 2, "title": "Luth Disaster Response - Hurricane Michael.001", "ispublic": 1, "isfriend": 0, "isfamily": 0, "url_s": "https:\/\/farm2.staticflickr.com\/1957\/44498575995_eca4e4012f_m.jpg", "height_s": "135", "width_s": "240", "url_m": "https:\/\/farm2.staticflickr.com\/1957\/44498575995_eca4e4012f.jpg", "height_m": "281", "width_m": "500", "url_l": "https:\/\/farm2.staticflickr.com\/1957\/44498575995_eca4e4012f_b.jpg", "height_l": "576", "width_l": "1024" },
    { "id": "44498576205", "owner": "146175982@N04", "secret": "581a6667af", "server": "1907", "farm": 2, "title": "Akerselva upgrade", "ispublic": 1, "isfriend": 0, "isfamily": 0, "url_s": "https:\/\/farm2.staticflickr.com\/1907\/44498576205_581a6667af_m.jpg", "height_s": "240", "width_s": "180", "url_m": "https:\/\/farm2.staticflickr.com\/1907\/44498576205_581a6667af.jpg", "height_m": "500", "width_m": "375", "url_l": "https:\/\/farm2.staticflickr.com\/1907\/44498576205_581a6667af_b.jpg", "height_l": "1024", "width_l": "768" },
    { "id": "44498576355", "owner": "99577243@N00", "secret": "ebc5305faa", "server": "1961", "farm": 2, "title": "Ely Von Kernen", "ispublic": 1, "isfriend": 0, "isfamily": 0, "url_s": "https:\/\/farm2.staticflickr.com\/1961\/44498576355_ebc5305faa_m.jpg", "height_s": "160", "width_s": "240", "url_m": "https:\/\/farm2.staticflickr.com\/1961\/44498576355_ebc5305faa.jpg", "height_m": "333", "width_m": "500", "url_l": "https:\/\/farm2.staticflickr.com\/1961\/44498576355_ebc5305faa_b.jpg", "height_l": "682", "width_l": "1024" },
    { "id": "44498576555", "owner": "146985596@N05", "secret": "a04f6bea7c", "server": "1936", "farm": 2, "title": "IMG_20181011_141445909", "ispublic": 1, "isfriend": 0, "isfamily": 0, "url_s": "https:\/\/farm2.staticflickr.com\/1936\/44498576555_a04f6bea7c_m.jpg", "height_s": "240", "width_s": "180", "url_m": "https:\/\/farm2.staticflickr.com\/1936\/44498576555_a04f6bea7c.jpg", "height_m": "500", "width_m": "375", "url_l": "https:\/\/farm2.staticflickr.com\/1936\/44498576555_a04f6bea7c_b.jpg", "height_l": "1024", "width_l": "768" },
    { "id": "44688973204", "owner": "142411989@N05", "secret": "c33666854b", "server": "1921", "farm": 2, "title": "DSC01997", "ispublic": 1, "isfriend": 0, "isfamily": 0, "url_s": "https:\/\/farm2.staticflickr.com\/1921\/44688973204_c33666854b_m.jpg", "height_s": "160", "width_s": "240", "url_m": "https:\/\/farm2.staticflickr.com\/1921\/44688973204_c33666854b.jpg", "height_m": "333", "width_m": "500", "url_l": "https:\/\/farm2.staticflickr.com\/1921\/44688973204_c33666854b_b.jpg", "height_l": "683", "width_l": "1024" },
    { "id": "44688974884", "owner": "157646389@N02", "secret": "4ca239ffe9", "server": "1952", "farm": 2, "title": "Style Inspiration : Alexa Chung in a ruffled top, midi skirt & boots #style #fashion #celebrity", "ispublic": 1, "isfriend": 0, "isfamily": 0, "url_s": "https:\/\/farm2.staticflickr.com\/1952\/44688974884_4ca239ffe9_m.jpg", "height_s": "240", "width_s": "160", "url_m": "https:\/\/farm2.staticflickr.com\/1952\/44688974884_4ca239ffe9.jpg", "height_m": "500", "width_m": "333", "url_l": "https:\/\/farm2.staticflickr.com\/1952\/44688974884_4ca239ffe9_b.jpg", "height_l": "750", "width_l": "500" },
    { "id": "44688978464", "owner": "166221475@N05", "secret": "7bf9a263bf", "server": "1915", "farm": 2, "title": "ES FÀCIL VIURE SENSE COMPLICACIONS.", "ispublic": 1, "isfriend": 0, "isfamily": 0, "url_s": "https:\/\/farm2.staticflickr.com\/1915\/44688978464_7bf9a263bf_m.jpg", "height_s": "144", "width_s": "240", "url_m": "https:\/\/farm2.staticflickr.com\/1915\/44688978464_7bf9a263bf.jpg", "height_m": "300", "width_m": "500", "url_l": "https:\/\/farm2.staticflickr.com\/1915\/44688978464_7bf9a263bf_b.jpg", "height_l": "614", "width_l": "1024" },
    { "id": "44688978984", "owner": "167548927@N06", "secret": "fe0d79d97b", "server": "1910", "farm": 2, "title": "Fliege", "ispublic": 1, "isfriend": 0, "isfamily": 0, "url_s": "https:\/\/farm2.staticflickr.com\/1910\/44688978984_fe0d79d97b_m.jpg", "height_s": "160", "width_s": "240", "url_m": "https:\/\/farm2.staticflickr.com\/1910\/44688978984_fe0d79d97b.jpg", "height_m": "333", "width_m": "500", "url_l": "https:\/\/farm2.staticflickr.com\/1910\/44688978984_fe0d79d97b_b.jpg", "height_l": "683", "width_l": "1024" },
    { "id": "44688979424", "owner": "138417587@N07", "secret": "a215b7137f", "server": "1912", "farm": 2, "title": "Pin Sạc Dự Phòng 12000mAh Promate CLOY-12.BLUE 2 Cổng Sạc UltraFast (5V\/2.1A & 5V\/1A) Tích Hợp Công Nghệ ShakeView", "ispublic": 1, "isfriend": 0, "isfamily": 0, "url_s": "https:\/\/farm2.staticflickr.com\/1912\/44688979424_a215b7137f_m.jpg", "height_s": "240", "width_s": "240", "url_m": "https:\/\/farm2.staticflickr.com\/1912\/44688979424_a215b7137f.jpg", "height_m": "500", "width_m": "500", "url_l": "https:\/\/farm2.staticflickr.com\/1912\/44688979424_a215b7137f_b.jpg", "height_l": "1024", "width_l": "1024" },
    { "id": "44688979724", "owner": "128440843@N03", "secret": "5d7ed3cb5c", "server": "1911", "farm": 2, "title": "", "ispublic": 1, "isfriend": 0, "isfamily": 0, "url_s": "https:\/\/farm2.staticflickr.com\/1911\/44688979724_5d7ed3cb5c_m.jpg", "height_s": "173", "width_s": "240", "url_m": "https:\/\/farm2.staticflickr.com\/1911\/44688979724_5d7ed3cb5c.jpg", "height_m": "361", "width_m": "500" },
    { "id": "44688980134", "owner": "153734719@N02", "secret": "59bd5af477", "server": "1918", "farm": 2, "title": "", "ispublic": 1, "isfriend": 0, "isfamily": 0, "url_s": "https:\/\/farm2.staticflickr.com\/1918\/44688980134_59bd5af477_m.jpg", "height_s": "180", "width_s": "240", "url_m": "https:\/\/farm2.staticflickr.com\/1918\/44688980134_59bd5af477.jpg", "height_m": "375", "width_m": "500", "url_l": "https:\/\/farm2.staticflickr.com\/1918\/44688980134_59bd5af477_b.jpg", "height_l": "767", "width_l": "1024" },
    { "id": "45361924982", "owner": "127771872@N05", "secret": "1740e48f3c", "server": "1920", "farm": 2, "title": "_D719211.jpg", "ispublic": 1, "isfriend": 0, "isfamily": 0, "url_s": "https:\/\/farm2.staticflickr.com\/1920\/45361924982_1740e48f3c_m.jpg", "height_s": "160", "width_s": "240", "url_m": "https:\/\/farm2.staticflickr.com\/1920\/45361924982_1740e48f3c.jpg", "height_m": "333", "width_m": "500", "url_l": "https:\/\/farm2.staticflickr.com\/1920\/45361924982_1740e48f3c_b.jpg", "height_l": "683", "width_l": "1024" },
    { "id": "45361928482", "owner": "148299483@N08", "secret": "f43485bea6", "server": "1925", "farm": 2, "title": "F1 Uniform", "ispublic": 1, "isfriend": 0, "isfamily": 0, "url_s": "https:\/\/farm2.staticflickr.com\/1925\/45361928482_f43485bea6_m.jpg", "height_s": "240", "width_s": "185", "url_m": "https:\/\/farm2.staticflickr.com\/1925\/45361928482_f43485bea6.jpg", "height_m": "500", "width_m": "386", "url_l": "https:\/\/farm2.staticflickr.com\/1925\/45361928482_f43485bea6_b.jpg", "height_l": "1024", "width_l": "791" },
    { "id": "45361928512", "owner": "160826023@N06", "secret": "a6b1c9179e", "server": "1917", "farm": 2, "title": "Breast squeeze www.hentaizone.me", "ispublic": 1, "isfriend": 0, "isfamily": 0, "url_s": "https:\/\/farm2.staticflickr.com\/1917\/45361928512_a6b1c9179e_m.jpg", "height_s": "240", "width_s": "192", "url_m": "https:\/\/farm2.staticflickr.com\/1917\/45361928512_a6b1c9179e.jpg", "height_m": "500", "width_m": "400", "url_l": "https:\/\/farm2.staticflickr.com\/1917\/45361928512_a6b1c9179e_b.jpg", "height_l": "1024", "width_l": "819" },
    { "id": "45361928712", "owner": "50245168@N00", "secret": "7140a8782d", "server": "1935", "farm": 2, "title": "_Z1A8335.jpg", "ispublic": 1, "isfriend": 0, "isfamily": 0, "url_s": "https:\/\/farm2.staticflickr.com\/1935\/45361928712_7140a8782d_m.jpg", "height_s": "160", "width_s": "240", "url_m": "https:\/\/farm2.staticflickr.com\/1935\/45361928712_7140a8782d.jpg", "height_m": "333", "width_m": "500", "url_l": "https:\/\/farm2.staticflickr.com\/1935\/45361928712_7140a8782d_b.jpg", "height_l": "683", "width_l": "1024" },
    { "id": "45361929112", "owner": "146312266@N06", "secret": "912b784bdc", "server": "1949", "farm": 2, "title": "_JJH6614.jpg", "ispublic": 1, "isfriend": 0, "isfamily": 0, "url_s": "https:\/\/farm2.staticflickr.com\/1949\/45361929112_912b784bdc_m.jpg", "height_s": "160", "width_s": "240", "url_m": "https:\/\/farm2.staticflickr.com\/1949\/45361929112_912b784bdc.jpg", "height_m": "333", "width_m": "500", "url_l": "https:\/\/farm2.staticflickr.com\/1949\/45361929112_912b784bdc_b.jpg", "height_l": "683", "width_l": "1024" },
    { "id": "45361930672", "owner": "167230489@N03", "secret": "13ab118466", "server": "1932", "farm": 2, "title": "191018024105_dog finger toothbrush and toothpaste dog toothbrush mint toothbrush for small dogs dog toothbrush 360 petosan dog toothbrush medium dog toothbrush", "ispublic": 1, "isfriend": 0, "isfamily": 0, "url_s": "https:\/\/farm2.staticflickr.com\/1932\/45361930672_13ab118466_m.jpg", "height_s": "240", "width_s": "240", "url_m": "https:\/\/farm2.staticflickr.com\/1932\/45361930672_13ab118466.jpg", "height_m": "500", "width_m": "500", "url_l": "https:\/\/farm2.staticflickr.com\/1932\/45361930672_13ab118466_b.jpg", "height_l": "1024", "width_l": "1024" },
    { "id": "45413588711", "owner": "10304553@N05", "secret": "bf15e338fa", "server": "1913", "farm": 2, "title": "GOPR5689", "ispublic": 1, "isfriend": 0, "isfamily": 0, "url_s": "https:\/\/farm2.staticflickr.com\/1913\/45413588711_bf15e338fa_m.jpg", "height_s": "240", "width_s": "180", "url_m": "https:\/\/farm2.staticflickr.com\/1913\/45413588711_bf15e338fa.jpg", "height_m": "500", "width_m": "375", "url_l": "https:\/\/farm2.staticflickr.com\/1913\/45413588711_bf15e338fa_b.jpg", "height_l": "1024", "width_l": "768" },
    { "id": "45413591571", "owner": "153450114@N04", "secret": "4bca168dae", "server": "1952", "farm": 2, "title": "Ambroise - Le Château", "ispublic": 1, "isfriend": 0, "isfamily": 0, "url_s": "https:\/\/farm2.staticflickr.com\/1952\/45413591571_4bca168dae_m.jpg", "height_s": 44, "width_s": "240", "url_m": "https:\/\/farm2.staticflickr.com\/1952\/45413591571_4bca168dae.jpg", "height_m": 91, "width_m": "500", "url_l": "https:\/\/farm2.staticflickr.com\/1952\/45413591571_4bca168dae_b.jpg", "height_l": "187", "width_l": "1024" }
  ] }, "stat": "ok" }